2.354894381860278330e+00 7.958144362178612985e-01 5.094702919352092418e-05 4.911871661501226782e+00 3.150708818078146400e+00
3.652737686153634811e-01 1.245137100172044042e-01 7.646196049097203423e-05 1.367244891431639076e+00 4.897874786325628893e-01
3.714005850949121945e-01 1.270725997698378962e-01 1.937359025615505907e-04 2.340275170851525477e+00 4.984731848647508956e-01
3.681207098554379331e-01 1.250777519188652209e-01 1.239806536986667461e-04 1.749049338986226054e+00 4.931984617743011001e-01
3.858720682073560893e-01 1.309014076682303851e-01 4.132200893923059670e-05 8.946539142356083607e-01 5.167734758755881952e-01
3.745963597874803486e-01 1.291491850304597733e-01 1.627342035299676368e-04 1.134499885012944409e+00 5.037455448179382067e-01
3.792724001352652530e-01 1.286463087930700411e-01 9.840290164803561514e-08 2.763875181778130408e-01 5.079187089283340173e-01
3.783869017413356572e-01 1.285745915535782269e-01 2.371685889612359043e-04 1.375093567162764652e+00 5.069614932949134678e-01
3.666643200555890769e-01 1.269677853931440448e-01 2.910242676485434911e-06 7.982431369567631885e-01 4.936321054487318727e-01
3.905913638531668952e-01 1.343785218830173822e-01 5.105552784533935598e-07 3.948201210062332489e+00 5.249698857361853044e-01
3.837820538834523787e-01 1.301968959857049413e-01 3.845980602063879365e-04 3.830327769985488739e+00 5.139789498691570424e-01
3.594590052442895312e-01 1.202884500340857393e-01 7.540790388704243503e-05 3.575167260458833152e+00 4.797474552783735358e-01
3.810890863951410523e-01 1.305669068845836112e-01 1.071627598015561324e-04 4.930538024805771080e+00 5.116559932797229981e-01
3.741289019712408237e-01 1.338935230823607714e-01 5.361679435811053417e-06 3.311077322579070614e+00 5.080224250536035102e-01
3.793933070587150458e-01 1.288270807622563241e-01 3.050437789735049914e-06 5.792981844134696967e-01 5.082203878209741177e-01
3.685360981018935278e-01 1.254213445298741347e-01 1.443417002756644272e-05 1.177927012668125606e+00 4.939574426317669409e-01
3.633774469489706727e-01 1.249909562752619940e-01 1.297593724430330545e-04 2.612646795052465887e+00 4.883684032242316952e-01
3.740197506364542068e-01 1.254563570767928127e-01 3.594497780510229407e-06 1.505881081699331769e+00 4.994761077132525151e-01
3.759060262465453439e-01 1.272123869237573868e-01 5.379541102793394727e-05 2.680533492257040962e+00 5.031184131702974849e-01
3.613058506980982854e-01 1.247470705972696658e-01 5.864987965289195716e-06 4.777923187059905707e+00 4.860529212953690337e-01
3.713342633555085093e-01 1.310327799423810502e-01 4.538926672165383776e-04 7.693061702218653153e-01 5.023670432978939449e-01
3.805910634864345110e-01 1.280726555660360033e-01 2.741899676331643434e-05 2.085800881117657823e+00 5.086637190524746499e-01
3.683784993522988271e-01 1.275678690867320109e-01 2.140705008828138920e-04 2.671821381260108375e+00 4.959463684390321703e-01
3.821903018520770301e-01 1.251420274406106203e-01 1.470647717297465947e-04 3.816705970923813807e-01 5.073323292926851247e-01
3.636771558039156860e-01 1.281183220919233923e-01 2.549475856413851017e-04 1.487222555303198357e+00 4.917954778958437134e-01
3.716986383044526554e-01 1.252901446782096195e-01 2.388954527673918453e-05 4.780186575971324126e-01 4.969887829826639125e-01
3.920361789900643767e-01 1.361207477254877396e-01 4.431280170635749360e-07 2.597370989844031364e+00 5.281569267155508118e-01
3.736402529450276733e-01 1.254150471457992633e-01 2.253116847588816957e-05 2.291370326466945162e+00 4.990553000908245496e-01
3.866985980960147007e-01 1.294884167952870535e-01 1.099576264157961785e-04 7.606681541910443878e-01 5.161870148913004774e-01
3.786400131631961208e-01 1.307214071432939162e-01 2.372298531624589084e-04 2.240370870713897400e+00 5.093614203064896762e-01
3.593174243455459771e-01 1.237119364046112002e-01 2.218563504747858421e-04 2.823490491869980801e+00 4.830293607501583431e-01
3.595941632842550861e-01 1.232098878072876991e-01 2.540815258174359406e-05 5.792692034598475592e-01 4.828040510915418970e-01
3.710429905180984700e-01 1.209036674135512135e-01 3.236418462461700899e-04 1.066600890340278829e+00 4.919466579316547072e-01
3.735818381427551405e-01 1.291381324834486310e-01 1.917854541778347532e-04 1.468432946964527863e+00 5.027199706262031054e-01
3.700758945968077307e-01 1.274676145932958637e-01 3.725934408867952272e-04 2.805158413734854861e+00 4.975435091901038720e-01
3.798829468233617668e-01 1.283953024266593079e-01 1.057044350998420499e-04 1.057000110807168713e+00 5.082782492500229621e-01
3.632842901297534954e-01 1.248739219833813197e-01 8.588596626271351392e-04 1.054745287908716245e+00 4.881582121131364804e-01
3.864467384192733501e-01 1.312267906225052794e-01 2.419453721266063325e-05 7.959642367755357384e-01 5.176735290417784352e-01
3.792623378291996028e-01 1.279701387949306324e-01 2.329800072979768138e-05 1.247196541518996948e+00 5.072324766241255167e-01
3.737100390476620349e-01 1.271941578379854054e-01 3.767684311844899498e-04 8.309715482383482898e-01 5.009041968856444704e-01
3.608198007753917746e-01 1.225120501006766865e-01 3.305805252023238364e-08 2.227760603683375251e+00 4.833318508760676702e-01
3.921957150946444037e-01 1.337703219126186449e-01 2.086672331793486119e-05 1.099082630822867168e+00 5.259660370072624103e-01
3.762090849657632186e-01 1.247444035703617754e-01 1.683172747130785873e-04 4.064448728723318860e-01 5.009534885361254242e-01
3.622614412104663284e-01 1.243739705729819539e-01 1.325398757468470418e-04 6.846177408382781993e-01 4.866354117834498783e-01
3.741549121660205368e-01 1.285063416267882008e-01 2.652067506210109465e-05 3.838784944901763585e-01 5.026612537928080160e-01
3.586441125490410498e-01 1.266295139538680670e-01 8.840624642620337041e-05 3.777204932535616067e-01 4.852736265029033436e-01
3.647560732081308599e-01 1.222978955166112297e-01 1.963432733104197067e-04 3.461770302176005121e+00 4.870539687247431027e-01
3.568161759448096881e-01 1.237307860052038327e-01 1.401395666768600397e-04 6.100572387906196825e-01 4.805469619500131739e-01
3.613206066454017207e-01 1.242216843418289390e-01 3.636568314504825628e-05 3.522324070262126128e+00 4.855422909872282866e-01
3.774839248967465366e-01 1.285579149044275837e-01 1.080592813720015425e-03 4.573790404650440955e+00 5.060418398011700125e-01
