3.175009044464416785e+00 8.364997751728527886e-01 1.535650522048423536e-03 1.805084029814225000e+00
1.014583435682366197e+00 2.553882150650363947e-01 9.425319327995431524e-04 5.178140444721095470e-01
9.874848578784324316e-01 2.472759567830442040e-01 2.462134674875880377e-04 5.018591899387754296e-01
9.390440524090362118e-01 2.348673191376350056e-01 2.894530964764344886e-04 4.765706640411156436e-01
9.783784906988717278e-01 2.481553856494486676e-01 2.816346022082809710e-04 5.035120554528192960e-01
1.028828687903704298e+00 2.552807383286889720e-01 1.550622157528674494e-04 5.177825193263875247e-01
9.582369848987710714e-01 2.385216300073992601e-01 9.672030752702924158e-05 4.844507037605859656e-01
9.024617081275030372e-01 2.332938728136716711e-01 9.904256907380605618e-07 4.731476207714639393e-01
9.738688281624903187e-01 2.549119838535797711e-01 6.513120935265410761e-06 5.166839476222613303e-01
1.050662275572693316e+00 2.683865626319163478e-01 1.261175696931069102e-05 5.438429908570154847e-01
9.415754030734426738e-01 2.371334421979884033e-01 1.961487417284929903e-04 4.813402041429161726e-01
9.543256935342349090e-01 2.406227846878597754e-01 1.163712570001710200e-05 4.879085718877447797e-01
9.927895158048580804e-01 2.575112537123945833e-01 1.911058098913415732e-05 5.215553236735224196e-01
9.930324975497515361e-01 2.497018566069526269e-01 2.014546875439546681e-03 5.064096135842854896e-01
8.880877122117841749e-01 2.260180847082755851e-01 6.650211980179927514e-04 4.584344962118820366e-01
9.559273071682813372e-01 2.429715535227081891e-01 3.101382794428454953e-04 4.926424476558667886e-01
1.020521453713620685e+00 2.539583591374428573e-01 1.802672614768470515e-04 5.157363723013990153e-01
9.038673149120571848e-01 2.275239667334126581e-01 2.782056606891537332e-04 4.623149251001806292e-01
1.010200411510354668e+00 2.627646548078421129e-01 9.197424032398523748e-05 5.326615198853373867e-01
1.016150515871289572e+00 2.639880857773133083e-01 1.288745560173684994e-04 5.352877360270534846e-01
9.781807846307360998e-01 2.575994306817235846e-01 6.270670611632381351e-04 5.217087177724540892e-01
1.022451176981456156e+00 2.569861504193327040e-01 8.779520320771472394e-04 5.214383873516321710e-01
9.826954915289152215e-01 2.442556055212630750e-01 2.098972082538615648e-09 4.959105481039753349e-01
9.097898335040137674e-01 2.448089883101919051e-01 9.434455196726358739e-04 4.956957180226527759e-01
9.125506703813943687e-01 2.417013214316741376e-01 5.125180423715872515e-04 4.895247063154680167e-01
9.376900638997978099e-01 2.392795942423550370e-01 8.832908782988662614e-04 4.852020113715829197e-01
9.689051428320901715e-01 2.370505494956029469e-01 2.962344552680860714e-04 4.818913470393568765e-01
9.927267346579989882e-01 2.485087135222550092e-01 9.513204468320478899e-04 5.040265599311833933e-01
9.346491889556093335e-01 2.374284039076130781e-01 8.839999773408699140e-04 4.810890840305688254e-01
9.633455586175800889e-01 2.434120127271397205e-01 4.473502150389996324e-04 4.940972323628305962e-01
1.040410014105071390e+00 2.617409005667890587e-01 1.460890213727139659e-05 5.309641683239164633e-01
1.001075544017345997e+00 2.526966935293191718e-01 2.399039953034376460e-04 5.131657600254206919e-01
1.002210380898861830e+00 2.447831177342754683e-01 6.463664297320704827e-05 4.970417489711144166e-01
1.006526830947346074e+00 2.582844522187348613e-01 2.137246330767589731e-04 5.237149368050734166e-01
8.469791808707171077e-01 2.279109761282314683e-01 3.686837530815998136e-04 4.615344827326144928e-01
1.012155272269221085e+00 2.574992878648539874e-01 9.478738246407222541e-04 5.228851976008715985e-01
1.007102359362148203e+00 2.540999621852002566e-01 7.891621776321580510e-04 5.155656256975115204e-01
8.913281247321126477e-01 2.339441389836665330e-01 1.263301848421501225e-04 4.742003156452739288e-01
9.169813937351662947e-01 2.291113782503513274e-01 1.110679117326040690e-05 4.653079685877326011e-01
1.010096376040314325e+00 2.559208909293707590e-01 2.473616865722103042e-04 5.191403605249214070e-01
9.350527061315069277e-01 2.257643619887696462e-01 1.697495851296608330e-04 4.591002632652356752e-01
1.013324999175399643e+00 2.497764619999687241e-01 2.985781141146323214e-04 5.068014578565269712e-01
9.569195716420030307e-01 2.335663921562347312e-01 5.611302438479228409e-05 4.743380146850161849e-01
9.597342842525681261e-01 2.401202641767720414e-01 1.466644197323701345e-04 4.874360849989560762e-01
1.011657570573384790e+00 2.540931897679398754e-01 3.112667577969863326e-04 5.156260776519071554e-01
9.400787856728115566e-01 2.410526661806156046e-01 1.199445560059719886e-05 4.884701335221571794e-01
1.020397217350126118e+00 2.494128518100005854e-01 3.277156479264745331e-04 5.066349148649458289e-01
9.547440312316042288e-01 2.429486489402638838e-01 1.098820429806533408e-04 4.931314430562175333e-01
9.475978763450277897e-01 2.336478908343634642e-01 1.396673353024551834e-05 4.749117373660858288e-01
9.682289865317977862e-01 2.432427953936144027e-01 4.356410935883006956e-04 4.938342368062634824e-01
9.972920173903859764e-01 2.586697665186203365e-01 3.607991516129368040e-04 5.240688321978891340e-01
9.488719326745246319e-01 2.360105698729882961e-01 1.777081963047723507e-04 4.787593303559177782e-01
9.271182891168417983e-01 2.385510064071113823e-01 2.025343394150149346e-03 4.836886783534220524e-01
9.998861757346865220e-01 2.462342322928569305e-01 3.167706092536987382e-05 5.001281376864897821e-01
1.051619814795054619e+00 2.531502683100571582e-01 6.620258040894476639e-08 5.145855672400039271e-01
9.824387315422294931e-01 2.521259630186149514e-01 6.185959858446602963e-05 5.113681259945381807e-01
1.050860068338203002e+00 2.691734568275676032e-01 1.135409327202491133e-04 5.456230958439951539e-01
1.004227723520497717e+00 2.507114487053593854e-01 1.625572803494039519e-04 5.090604915873353509e-01
9.672531771869223860e-01 2.465190098123297702e-01 1.754674701330758942e-04 5.001230253719560759e-01
1.005101280661865992e+00 2.484949440480776484e-01 3.403604717499474834e-04 5.046021373027675949e-01
9.847031673819934827e-01 2.526493390440327502e-01 5.938756444992448818e-04 5.123215670601506400e-01
9.911678866905926366e-01 2.470892932984100898e-01 4.916845740508445561e-04 5.013354004447465595e-01
1.056818934890261019e+00 2.564295196552597855e-01 2.763471510185989684e-04 5.209469942394859832e-01
9.804923822733395689e-01 2.447661228694563151e-01 1.071005409506660850e-04 4.973658621514981948e-01
9.911604479336734164e-01 2.533388098042010372e-01 9.365048817057471890e-08 5.138675360110747103e-01
9.561078181447125734e-01 2.480208293534849895e-01 2.013927845731003748e-05 5.021922309418003216e-01
9.483599097208343931e-01 2.424718566142460563e-01 2.142496657797491634e-04 4.915169774566330307e-01
1.081664810452059200e+00 2.635853460133111836e-01 5.862304081698697326e-04 5.353218319554385873e-01
9.928943693581426810e-01 2.517212350687634270e-01 6.232131486723789745e-06 5.107827145740052588e-01
9.459394214304231996e-01 2.296279988751152024e-01 1.391177520510596002e-04 4.674068047561841799e-01
9.551084722916979297e-01 2.522073683225330987e-01 6.301974811955983252e-05 5.110170845353416702e-01
9.569804820768564868e-01 2.430372747692283175e-01 3.149317857601809990e-04 4.934827399232329936e-01
1.034051976834579945e+00 2.554073820803358652e-01 3.492107147683559112e-04 5.183348280502316774e-01
9.707417494005144976e-01 2.346821303394235891e-01 1.221390324311132135e-03 4.767979684786768924e-01
9.820197125064625832e-01 2.527860405815585687e-01 7.951305875603600242e-05 5.121752929059010251e-01
9.950990985110748088e-01 2.484895938259298331e-01 1.937599038812595255e-04 5.039214913016923925e-01
9.802795213091830551e-01 2.469727998179458983e-01 1.314434378376895746e-04 5.010498196246296887e-01
1.080246942855119796e+00 2.592640548902897524e-01 2.610519021848570589e-05 5.277483126330521079e-01
9.336452867216381568e-01 2.394241788322940268e-01 2.962954825877765519e-05 4.854434000652854686e-01
9.255556823951229806e-01 2.371234510846345900e-01 2.264820919421945170e-04 4.808344343293293743e-01
1.014971459908178275e+00 2.468607149386954913e-01 1.574161770522595029e-04 5.012327740325626113e-01
1.020466009290220022e+00 2.659545622540122056e-01 7.283125751980129472e-05 5.384953823903297909e-01
9.510590803892517986e-01 2.439287799166837134e-01 3.657664757261829555e-04 4.939456986348150780e-01
1.074963300071913208e+00 2.611886374735878924e-01 6.207781707143261371e-04 5.304072141909632609e-01
1.059908471482789327e+00 2.549730951517545363e-01 1.070182616679642037e-04 5.178366822234928835e-01
9.782253488035423938e-01 2.470828070985011116e-01 7.777117605525574687e-07 5.007668174287086549e-01
9.589251787857748788e-01 2.508693894831091065e-01 1.034369479560197423e-04 5.084101473914031111e-01
9.543107064797599071e-01 2.384710159814907304e-01 2.234239069123231738e-06 4.837400015682224441e-01
9.589113797906141379e-01 2.464229137211572940e-01 5.860689547158007799e-07 4.992852628732336040e-01
9.382990519442758748e-01 2.325582018864514877e-01 1.697950531161590234e-04 4.723730323847005197e-01
9.634470826201703142e-01 2.567093707585653140e-01 3.386456545261061599e-04 5.197958919096244967e-01
9.321411101734793370e-01 2.322006622941749088e-01 2.040362809159388085e-04 4.721944165989592213e-01
9.739238009866429957e-01 2.460603005109449626e-01 3.664392597836377096e-05 4.990484195385575528e-01
9.354966479539642554e-01 2.421929056509748435e-01 5.875192128984085349e-04 4.908532757106647271e-01
9.956448416788263867e-01 2.504813134359201721e-01 1.758588615372658201e-05 5.075336560147313270e-01
9.484182350532606165e-01 2.429549656116402057e-01 5.626032423165384781e-05 4.928715823761790071e-01
8.944170571357092925e-01 2.317058572965472740e-01 6.503100543234249082e-05 4.698489545490957542e-01
9.845881031458686428e-01 2.473430162001395149e-01 5.918031527493203186e-06 5.017329185410697168e-01
9.615976512686161826e-01 2.484285807360632481e-01 1.105856958057700154e-04 5.031389229408889108e-01
1.004273450143144508e+00 2.490188228411703286e-01 6.250326827758937408e-04 5.050329907033542787e-01
9.893911584578698459e-01 2.520875456131901893e-01 1.762856757986207962e-04 5.114534594269171119e-01
1.023302576936214958e+00 2.540792448762054234e-01 2.231424080006686632e-04 5.162815751545873910e-01
9.697279293127005761e-01 2.473809023248824679e-01 1.079181825363797907e-06 5.015936285670417050e-01
9.896785255999240860e-01 2.595357450923390652e-01 4.598555603454857176e-05 5.262790747161635307e-01
9.153761846198424923e-01 2.434071283316386336e-01 5.712660869409287015e-04 4.930290016577580925e-01
9.849959642291225004e-01 2.491468822707205155e-01 1.111765490358993934e-04 5.062569121301541131e-01
9.327788952973907755e-01 2.347698199990933821e-01 2.329896949675651190e-04 4.765271699719619281e-01
9.767529576336804187e-01 2.401527631742148006e-01 6.369627061845514325e-05 4.880451026008317261e-01
9.929974652766895282e-01 2.515895471748307854e-01 3.411865684648730432e-04 5.098985613447981624e-01
9.164822082545276416e-01 2.273362115315493981e-01 3.677068335689287048e-05 4.616529846890878308e-01
9.283284985619862928e-01 2.393230758357918764e-01 7.290083338618496894e-04 4.854284560062960274e-01
1.001877177846281164e+00 2.570030920168786537e-01 7.664074456823593542e-06 5.207220946681605511e-01
9.991549812542753761e-01 2.553142748032163900e-01 4.662407028830939268e-05 5.176390866636271237e-01
9.983496738557809946e-01 2.466832103996162706e-01 1.244413042693073238e-04 5.014418319391856782e-01
9.332296039359915252e-01 2.402918616171574040e-01 1.558052809486906796e-04 4.872550396307568366e-01
9.373416766715274573e-01 2.350262755306701534e-01 2.493057531545648568e-05 4.770619583187143964e-01
9.740833310103536036e-01 2.517713947868491231e-01 7.557851433047427486e-06 5.099107426038229640e-01
9.860296125428497094e-01 2.477308283948120859e-01 3.935397678222887286e-05 5.029625601068806739e-01
1.047483313498501545e+00 2.651198937818784462e-01 4.606887082242895756e-05 5.376681384491582838e-01
9.678594732536361933e-01 2.433536948413313472e-01 3.774554789724516364e-05 4.937227851804468770e-01
9.436181567998318531e-01 2.350072034249056363e-01 8.327601823434036463e-07 4.772537278724755527e-01
1.028423032869895337e+00 2.466326126286617904e-01 3.292853706980308000e-05 5.012129462330806584e-01
1.104141160069066263e+00 2.752515668227660250e-01 1.567663282840995806e-04 5.583200389352247495e-01
9.566269701972776041e-01 2.453257858041890949e-01 7.342745342379614293e-06 4.976243863111206589e-01
9.869955031910084831e-01 2.483513280628104614e-01 1.067277005589342513e-03 5.037629192217798479e-01
9.324568402523107924e-01 2.439509649568414318e-01 1.197947276752440088e-06 4.937365320255614476e-01
1.001708235922225132e+00 2.553525879393268028e-01 1.362969923120374962e-04 5.174983467032684414e-01
1.045893121926715130e+00 2.540598466110003950e-01 2.730838315516582885e-05 5.163647258064554268e-01
9.895376159784768921e-01 2.473158921324614401e-01 3.334343056764521335e-05 5.020433201725043038e-01
9.371155637499964941e-01 2.409490701177709193e-01 1.846840951728889746e-04 4.883614972093854312e-01
9.331961200680324309e-01 2.470924419960681684e-01 5.625759302032920652e-05 5.006455403780593061e-01
9.306491833760324184e-01 2.415437320093911100e-01 4.144190195844106627e-04 4.891817047457612810e-01
9.587355993401943666e-01 2.386114882884652622e-01 1.540609497878026588e-04 4.845350199012132819e-01
9.525230482169575463e-01 2.485505425886361253e-01 4.453817365996027550e-06 5.036552910315933440e-01
9.547788424070290381e-01 2.414523323402837374e-01 7.970012185150960812e-05 4.899277604627421123e-01
9.517447998477303051e-01 2.439639762115929367e-01 1.530600611458463088e-03 4.949750506822097051e-01
9.749051544148281678e-01 2.457809834381250447e-01 6.748066917080417289e-06 4.984665080432830742e-01
9.967840472777665939e-01 2.493872401057011801e-01 2.713364651129331995e-04 5.060509698665517364e-01
1.011443265658928725e+00 2.523445956346389574e-01 9.314618534951164515e-04 5.124804907191846670e-01
9.370897299405783754e-01 2.355954503510512554e-01 7.853221344065722167e-04 4.780640721679352834e-01
9.904166784624478526e-01 2.458525398332109813e-01 5.252684958361211439e-04 4.989013423971435102e-01
9.944587596241303284e-01 2.504156703039346898e-01 7.892415237593402482e-04 5.077190850675642464e-01
1.031597565233397518e+00 2.545252325753469824e-01 2.111154398832868195e-05 5.168418345905381184e-01
9.224927510668327058e-01 2.314054816569477424e-01 2.772388706649638089e-04 4.696046631955438921e-01
9.460999297665780849e-01 2.345027824306577247e-01 1.933210590429880970e-05 4.762773140478101519e-01
1.009547218708372052e+00 2.487050920302565638e-01 8.838609667130978211e-05 5.051208711024673947e-01
1.018626107681756210e+00 2.584740640270894452e-01 2.738716580725158480e-03 5.246324103937537453e-01
8.797908009908093074e-01 2.226663210754410982e-01 6.628272599733908254e-05 4.519422609833085858e-01
9.781457516328938562e-01 2.546314083817409202e-01 1.205361154379602069e-08 5.158157668936244056e-01
9.449016071644585901e-01 2.425438165729048856e-01 3.549350731001440096e-04 4.924059294946881993e-01
1.041745482975429349e+00 2.642345902409808933e-01 6.848439104933251326e-04 5.363580702587551485e-01
1.030618098784299219e+00 2.637372192823467798e-01 4.628466106722534806e-04 5.346563810896464153e-01
8.610809157084480248e-01 2.299261264373430869e-01 1.914316869364960662e-04 4.655671696732461839e-01
9.344616712492819222e-01 2.355469581552762370e-01 2.485502233472557262e-04 4.778854261399498871e-01
1.114200440279502047e+00 2.746432762620494850e-01 7.371189175179412476e-05 5.570965380314539805e-01
9.739036978750130746e-01 2.522504496149569619e-01 2.183174616747693544e-05 5.118699834459471409e-01
9.781196157740164043e-01 2.484081897595574184e-01 4.031752020985946967e-05 5.035205372352887787e-01
1.003513487240805580e+00 2.511330410706475447e-01 1.346262009570901993e-03 5.096746415785197160e-01
9.329447893186471052e-01 2.362891025995209893e-01 3.073044915613241810e-05 4.795521936585619982e-01
1.048086934137304693e+00 2.628341787793304629e-01 7.340732188586653912e-07 5.331070922423614133e-01
9.812256449233811573e-01 2.338782215324911595e-01 7.067130746596406740e-05 4.756060325864991389e-01
1.052429509198482327e+00 2.585753910529298705e-01 3.858344929794714056e-05 5.254454134395973863e-01
1.052904945079047527e+00 2.564274633829440320e-01 3.306989815423548107e-04 5.216204888578442889e-01
9.546032731364365587e-01 2.356360532963420462e-01 4.719231912328671351e-05 4.782701410225585481e-01
1.011930408122995617e+00 2.557793527734441019e-01 1.432246315185216768e-04 5.182202230924362052e-01
9.586276309327452783e-01 2.391400655280795096e-01 7.078628057405911300e-05 4.853715941801642342e-01
9.574253799759387951e-01 2.363974688708838645e-01 6.604499262091012111e-07 4.801022340771011754e-01
1.078826553990981374e+00 2.649599725739796852e-01 5.740660595126053495e-05 5.385277998481261541e-01
9.647646619357871378e-01 2.508139270386374742e-01 9.410940557323442350e-05 5.079090639721305367e-01
9.516434069821833042e-01 2.447625962503558739e-01 6.806854290662999786e-05 4.960126300368136731e-01
1.007799768744790825e+00 2.620959290060977387e-01 1.191916204793520118e-04 5.313089903093918265e-01
9.707784087926689676e-01 2.383616357833752974e-01 1.305106168139493318e-03 4.846793676045248467e-01
1.040041918037241553e+00 2.569540982733244383e-01 4.460511134028748140e-06 5.216619875915279314e-01
8.931113119671685308e-01 2.317569701645157410e-01 5.823661569083932480e-04 4.695542081664705880e-01
9.943220748378175378e-01 2.512531755390345900e-01 2.271386741921201403e-05 5.102280799675849021e-01
1.002027103770136929e+00 2.530555219656699939e-01 6.915511019945044693e-05 5.134529672572470949e-01
9.954738187063837396e-01 2.578729857126241809e-01 8.316988183278701120e-05 5.232455455292478463e-01
9.538515033362519047e-01 2.473643451132090942e-01 3.877694167960316551e-04 5.016832485372404449e-01
9.732838574250833874e-01 2.420627099085919942e-01 3.517174431988581815e-04 4.912863366303683588e-01
1.008523307794306101e+00 2.507292725900959196e-01 8.414452673366186811e-05 5.087726926579901887e-01
1.054150692139165235e+00 2.651385241828172479e-01 9.687217847985966576e-05 5.380486551365813996e-01
1.019429766914198288e+00 2.568639808383321177e-01 1.755397392741978652e-06 5.210095991122491998e-01
1.024708215247392751e+00 2.572940946253618466e-01 3.814093122050944392e-04 5.224832594755651760e-01
9.687034803298726349e-01 2.447220249417735582e-01 2.784291578424147843e-06 4.966406076356148502e-01
1.043149928909874680e+00 2.634799993969746401e-01 1.515007881583961720e-03 5.348914891897611490e-01
9.861430902888013161e-01 2.505038984603981111e-01 5.800374544033489767e-04 5.075554552866714531e-01
1.031323476509813597e+00 2.550135580409416680e-01 1.146611341086610443e-04 5.174816225625092914e-01
9.442111221843169089e-01 2.438549601091726804e-01 4.392354217678630173e-05 4.943798359486004101e-01
9.334315786101868850e-01 2.231768045800311129e-01 1.513269770806298321e-04 4.534319952008368237e-01
9.692528651962534214e-01 2.447535096173063529e-01 2.316827015611155525e-04 4.967385079781014845e-01
9.316141824133926663e-01 2.409110139903953562e-01 8.180027747050322949e-04 4.883016476689547858e-01
9.660904363812019557e-01 2.557084762934848654e-01 2.388219664689224795e-04 5.181347941799742118e-01
9.170160163290633770e-01 2.401345817602005828e-01 1.139602058309107058e-04 4.865012884870399956e-01
9.325445154021371197e-01 2.358053084259882637e-01 4.661390388746155123e-04 4.786919362344616014e-01
9.637754123042507892e-01 2.508358198512626869e-01 4.718450343994504441e-04 5.085202707044569337e-01
9.336191639984425805e-01 2.376360246146838051e-01 1.174620346802518559e-04 4.819598713077852259e-01
9.742844638861541950e-01 2.374361381127985671e-01 2.657537657868137286e-06 4.825150539742547040e-01
9.824716577806267281e-01 2.502573780570150341e-01 9.456546674803693528e-04 5.067962659754976507e-01
9.866372664971723161e-01 2.539671363299076390e-01 5.058314830656505121e-04 5.147960777298068447e-01
9.553317855928247226e-01 2.471314185755941195e-01 4.478261445841147186e-04 5.008974441821653079e-01
1.042274403116978165e+00 2.691453612617072388e-01 1.385795130859632587e-04 5.456645764181285996e-01
9.406202760469762891e-01 2.429559575204079946e-01 4.191555577882487976e-04 4.920942935321844236e-01
1.012651115868548057e+00 2.540891983870521287e-01 2.933340726128398071e-04 5.155545638801972697e-01
8.851184978822813632e-01 2.289646305681115046e-01 2.941472824548420687e-05 4.643011748160827401e-01
1.059105486864443835e+00 2.729787592679550623e-01 2.439779030364021782e-04 5.530664660345505634e-01
9.595834369608393644e-01 2.491573204056872215e-01 6.107249157020092538e-06 5.049358899396968470e-01
9.881322329132851134e-01 2.473755658253550538e-01 7.852081688050460532e-05 5.017466680525455303e-01
9.698975827090002833e-01 2.548809667230824694e-01 6.939874390414261206e-04 5.162291342969196339e-01
9.989036812007658916e-01 2.510192985408257194e-01 2.280448785232998236e-05 5.093056381039375857e-01
9.696578033843765709e-01 2.421804667953218193e-01 2.166421183825710702e-04 4.914669862313312265e-01
1.010790167300236408e+00 2.509488127116389911e-01 1.381674485282897660e-05 5.100526130492142318e-01
9.632171954229852284e-01 2.460858308233218050e-01 3.919193357542410461e-05 4.988770627858971074e-01
9.506435513882782740e-01 2.366366754477293721e-01 1.179147980909643108e-04 4.801433658318147724e-01
9.136768605557030742e-01 2.366941696558037267e-01 2.021193698390559806e-04 4.799060775081109842e-01
1.039356674426393568e+00 2.604679014838736650e-01 1.500937021014254070e-04 5.277844623544709624e-01
9.424076776453788051e-01 2.454532704062110104e-01 5.728577155035562591e-05 4.971791509049482416e-01
9.971475289499336370e-01 2.550029419277956011e-01 8.352405779181925485e-06 5.174437201342152459e-01
1.011586918668786250e+00 2.437510660724246103e-01 8.690979255404347563e-04 4.962334484448902017e-01
9.754045344166965004e-01 2.439103256805181530e-01 6.795951226181503620e-06 4.948349887923875756e-01
1.002351349428366900e+00 2.539230276025242206e-01 2.125623213189447528e-03 5.150631407203257739e-01
1.046571600307142580e+00 2.722813168721727184e-01 2.525706028548159986e-06 5.514555184230497398e-01
9.792339984541051923e-01 2.504376054505048632e-01 5.234786644047758437e-04 5.078388811739688036e-01
9.566335547589145394e-01 2.353349798576068463e-01 7.093857025524871407e-07 4.775508466543330055e-01
1.000414019357324547e+00 2.558032012377903230e-01 1.126810583688120089e-04 5.187912620169137234e-01
9.302187423914813902e-01 2.363179456267490708e-01 7.838804640943269160e-04 4.793825356810217375e-01
9.885569882374313222e-01 2.436894442701505736e-01 8.121226970105549106e-10 4.948774319192217330e-01
9.780050552362191674e-01 2.385517599789883925e-01 6.803134041410723769e-04 4.840816419846874497e-01
9.605812485708454806e-01 2.487316803051084213e-01 5.938106605123395337e-05 5.038757987551759632e-01
9.899775700109914034e-01 2.446579977052792398e-01 4.618343044371738177e-04 4.968060822559856593e-01
9.299075800815729265e-01 2.358184990218830102e-01 3.332594184947180348e-05 4.787004048136170309e-01
9.687368534002445131e-01 2.449812492399674746e-01 1.844914318000265337e-05 4.966597762205500755e-01
1.134917104937418486e+00 2.817741365099389328e-01 3.638784702279030851e-06 5.718658292029878965e-01
9.961284580600486827e-01 2.615248621151760600e-01 2.349936708590646072e-04 5.294777251112602334e-01
9.729969677025239738e-01 2.558026298739921045e-01 7.395829290068020912e-07 5.182596717754468507e-01
9.698406916912860609e-01 2.471621282566825450e-01 3.464940191429727767e-04 5.011682735532840827e-01
1.048453508893932629e+00 2.658785675662797554e-01 2.014312116383319508e-05 5.394167589246368077e-01
1.097323604534114816e+00 2.772394239348889844e-01 6.378322794348726895e-05 5.619754975279280806e-01
9.935231271983759882e-01 2.583215941473839816e-01 3.643769031919169500e-04 5.232256931270997669e-01
9.764350643909135430e-01 2.459049442195553603e-01 3.397215033266378238e-04 4.996454874354734899e-01
9.661701351452059994e-01 2.445780570402343590e-01 1.963325434796604046e-06 4.958112135628637285e-01
9.715817336335108578e-01 2.495205116845647941e-01 1.106059699392586870e-04 5.061632110634249893e-01
9.559474705778011616e-01 2.463498650563696324e-01 2.208596311827506044e-04 4.998476379639236189e-01
1.007526817428993970e+00 2.505285688226653873e-01 1.142715839729408281e-03 5.084991024123488579e-01
9.539568949812911036e-01 2.335717953248401257e-01 1.600025655589062295e-04 4.750988116261277150e-01
1.027002183533083146e+00 2.611833272839114151e-01 2.410756687223976791e-04 5.295153789960403978e-01
9.958492023851447383e-01 2.611403468555486551e-01 1.080045378488518702e-03 5.291484358568928625e-01
9.930909691745306578e-01 2.496045625683999958e-01 5.002800675742140069e-05 5.070696201717772578e-01
9.070750809036214335e-01 2.274352751520212212e-01 4.014705201839335526e-06 4.618198066974730231e-01
9.727102240543143985e-01 2.390005480766094481e-01 7.082132603768760291e-05 4.853895463503684615e-01
1.026206409412041998e+00 2.600930431949440291e-01 1.494565477050681889e-04 5.269930733423946467e-01
9.511142223655434380e-01 2.319136078370293286e-01 5.501138594331281117e-06 4.710474539528487492e-01
1.026694222614020546e+00 2.554879463144332785e-01 1.508026644943385249e-04 5.187230341795492361e-01
1.042266787593941535e+00 2.653461070028271251e-01 1.257877577536653611e-03 5.383610924110387996e-01
1.091914437148991501e+00 2.676720449771820554e-01 4.674768718886161906e-05 5.433322731848394538e-01
9.991683454308704082e-01 2.492425378623204513e-01 3.332430271061890187e-05 5.057652829660503890e-01
9.553428148144649246e-01 2.434570516167282872e-01 6.871684805575868518e-05 4.935440044933661619e-01
1.076458421510235297e+00 2.692649370733649072e-01 4.217627274061386917e-04 5.459508345590293743e-01
9.843719115285436416e-01 2.579685763463795967e-01 4.740356192866385554e-04 5.223917205177592837e-01
1.074225183373228809e+00 2.644916905021991727e-01 6.014309268750981773e-04 5.375399642749176810e-01
9.434471583644952197e-01 2.478984530891314153e-01 3.290126280396384918e-03 5.030494596843578803e-01
1.090636078504732431e+00 2.660559070923103064e-01 3.232624443900388421e-05 5.402320803306911445e-01
1.016887774710436565e+00 2.556503302110324505e-01 3.051928752705673589e-07 5.182133080512438816e-01
9.747955707442187423e-01 2.471043446785431419e-01 4.092093310473101210e-04 5.010196713909026434e-01
9.938111864629657344e-01 2.518981401683974553e-01 4.699589982184219049e-04 5.112299290498898419e-01
9.652622473755315680e-01 2.376147611845856322e-01 5.414518596073947905e-04 4.822346871434485260e-01
9.514669961256370101e-01 2.396524952438832401e-01 2.605148625437917753e-05 4.858570308533499693e-01
9.712827220408208895e-01 2.512075036055229083e-01 6.215313804434039217e-04 5.094165301647328725e-01
9.543425529072697699e-01 2.371242889728172043e-01 7.844709505419613879e-05 4.814003279502160892e-01
1.040486151288755767e+00 2.618793697588814862e-01 1.459664860683328592e-04 5.304552480263328151e-01
1.026539492342581239e+00 2.515392719027145230e-01 1.315517493437684472e-04 5.104192564819021172e-01
9.924465498670845820e-01 2.460408054268539146e-01 9.877973745440907314e-05 4.994360840322769612e-01
9.747664574797640924e-01 2.548028069500092863e-01 3.704609937258472118e-06 5.161937339610396247e-01
9.916700619950614692e-01 2.449560709393888147e-01 5.149626103727019530e-06 4.976184005586195558e-01
9.020536540167909401e-01 2.349924007748733223e-01 3.509152110930653743e-04 4.765589440133017329e-01
9.665974347160980473e-01 2.381910048630145604e-01 2.372190997770468983e-06 4.835494903800026667e-01
1.027767041376899115e+00 2.624886101243817937e-01 6.838357805179577349e-05 5.317758823949347846e-01
1.022172594771324494e+00 2.523458802149723401e-01 1.099109752304547240e-03 5.124144073264206289e-01
8.669663405515511956e-01 2.283261651107799106e-01 6.939974530181916611e-05 4.630918608284518290e-01
9.098253028226336303e-01 2.275430829698734947e-01 8.618600069010109432e-06 4.619470489560365545e-01
9.803162721642005861e-01 2.370439321106047326e-01 4.357505429141010124e-06 4.821786712458942525e-01
9.325330976484057510e-01 2.371477674112151823e-01 3.876648576931252020e-04 4.810281525542561276e-01
1.054404873037465773e+00 2.664839146410870052e-01 4.001038133560800387e-04 5.404792028298037732e-01
9.390592549475119677e-01 2.406736129502895227e-01 1.824419482847701630e-04 4.881817951871303407e-01
1.028749484119259039e+00 2.569205462918376925e-01 7.630596308390707192e-04 5.212894369308573861e-01
1.024909052092150219e+00 2.564350018474269577e-01 1.950509678326142065e-04 5.204307678904539491e-01
9.576656151133600137e-01 2.377318659548705027e-01 2.663991707618563239e-04 4.826981661903689824e-01
9.931513662552948762e-01 2.475282044585103147e-01 3.941967805667213984e-05 5.024324794717333065e-01
9.390659502624617572e-01 2.408243024092510676e-01 6.984356189671633382e-06 4.883899669933857712e-01
9.990549586587958997e-01 2.560979364249178492e-01 3.060744698389431526e-05 5.191669757153294373e-01
9.741235729935364684e-01 2.471410797220964239e-01 1.121003315559001808e-04 5.011375433967997228e-01
9.081664222585187352e-01 2.429417474021847434e-01 2.130101572897641620e-04 4.916246297537078536e-01
1.041594389758814687e+00 2.645130659967388498e-01 1.282068098068890171e-03 5.362845313048186791e-01
9.583013697443963919e-01 2.424677793547188875e-01 3.437263010402457595e-05 4.918843143176627741e-01
1.018331231620467348e+00 2.655116229190824795e-01 1.887789740631277140e-06 5.372624835934065590e-01
9.430205968152912677e-01 2.385520905462070740e-01 2.148813691849661586e-05 4.841483890300417592e-01
1.039448123509857380e+00 2.564534941725407080e-01 3.021616614452081310e-04 5.204124516349928342e-01
1.030221781459892849e+00 2.682345963704283465e-01 5.815130575801931064e-06 5.433138434695033991e-01
1.022935771960937545e+00 2.562552974938198114e-01 9.246232844708105283e-05 5.201268771943240443e-01
9.593044346241796916e-01 2.412856837343418936e-01 1.278451726743634349e-04 4.898051963988824808e-01
9.462582875933538418e-01 2.453376481806437692e-01 1.052788519032515566e-03 4.975450253687942470e-01
9.704839250769373704e-01 2.456339169559725866e-01 5.798485136911591851e-05 4.979348685655994311e-01
9.703565818322581471e-01 2.387730587803206794e-01 1.907852575315799874e-07 4.846353913060432173e-01
9.960085386489262449e-01 2.427459717362070724e-01 2.368712136857277658e-05 4.929325392639503645e-01
9.747159222142787183e-01 2.468430631046057422e-01 7.859646923606392112e-07 5.006821509731083086e-01
9.927333498715209537e-01 2.521519350546507221e-01 3.434137461579534986e-04 5.123792493058745290e-01
1.016659440729711594e+00 2.607364334987042342e-01 3.767892909845329104e-06 5.284981514225046695e-01
9.487402282238631690e-01 2.334337063089057807e-01 3.710790846916800089e-04 4.741853636711474973e-01
1.060784539111794267e+00 2.680659304999324366e-01 1.850751016298635002e-04 5.433734954269112682e-01
1.008196674082025623e+00 2.557034680135716331e-01 3.132498834023148774e-05 5.185148149911233961e-01
9.292004174487359380e-01 2.424539872912756522e-01 7.848234963106612196e-06 4.911200489430654348e-01
1.027573665808958703e+00 2.659988614963249565e-01 1.843603005421901942e-03 5.389857521597163359e-01
1.055719362418728879e+00 2.632987753750378745e-01 6.553366933722042586e-05 5.344315640177939031e-01
9.487553293860425674e-01 2.451335172324847766e-01 1.237880338636344456e-03 4.968121744036106957e-01
1.061479388979207350e+00 2.624374072502339561e-01 6.206012050065582005e-04 5.321767777163348700e-01
9.449930151399561495e-01 2.330711160105573276e-01 1.106938219025587942e-04 4.734859545631429079e-01
1.021531257931348247e+00 2.526592327913506075e-01 1.012259239234139659e-04 5.127690069546991802e-01
9.852210749358932818e-01 2.429907234054331233e-01 1.835449943918362917e-04 4.933686523653265654e-01
9.726393849909664713e-01 2.461611806342650366e-01 2.876515695715632409e-04 4.991702793612703970e-01
9.324278071433125259e-01 2.374587077327366957e-01 2.147429225504596077e-04 4.819021178162865571e-01
1.046824265624583861e+00 2.602104984849233915e-01 7.409233838904030756e-05 5.280046167245101563e-01
9.634697380794574606e-01 2.419275669209604573e-01 5.679585668530818339e-05 4.913513743898017538e-01
1.073356648460208396e+00 2.590069197486297714e-01 1.562752916867512945e-04 5.260119789397169621e-01
9.720717423286124870e-01 2.551185562650347682e-01 5.632932373834823123e-05 5.162096784592025145e-01
9.909791276984534214e-01 2.480649345541636186e-01 8.371379802167329550e-05 5.033107909234948441e-01
9.611275688103740888e-01 2.419768967785326519e-01 7.069756323294210153e-05 4.905507991344100760e-01
9.450790166293976391e-01 2.418910390485859430e-01 1.604136218532942377e-04 4.908340241304219309e-01
9.561467359437142433e-01 2.462807427302814711e-01 4.502647160254740172e-04 4.994529697450278971e-01
9.836542997888612083e-01 2.483430676438020956e-01 1.894131552339724700e-04 5.037706237588465141e-01
9.303318845340124987e-01 2.348840104557739505e-01 1.969857349139732088e-04 4.767765468893810366e-01
1.011701994033085583e+00 2.582058762216428160e-01 9.672216158300061455e-05 5.228197706184113391e-01
1.070637540302334267e+00 2.584608263723978672e-01 2.687445107113764286e-06 5.249060972231828215e-01
9.901526069058278479e-01 2.497630540802706911e-01 5.576305288299143742e-05 5.063613859739815037e-01
9.995579350223536830e-01 2.505336980652974610e-01 4.934859592748141603e-05 5.086985106454968708e-01
1.008534609141189531e+00 2.482284506377321343e-01 8.851601851020665028e-05 5.039173453507925782e-01
9.819410161488875133e-01 2.474046987295276390e-01 9.471435211314803166e-04 5.014811215794777732e-01
9.708731629316814660e-01 2.462269846272847340e-01 9.478702740276546967e-04 4.990316766404437332e-01
9.603532667881193863e-01 2.498088799402080618e-01 2.556323539841626690e-04 5.066056202421832522e-01
9.307766740438400133e-01 2.368658051969232126e-01 3.296415704049823014e-06 4.803555990496298223e-01
1.013214048584940796e+00 2.465074853197518345e-01 6.047959072408100236e-04 5.012105582784580626e-01
9.354564884100891042e-01 2.357555016216333066e-01 5.024302614540643438e-04 4.783624362932045737e-01
9.584686273212116303e-01 2.469643127149254713e-01 6.336696223606991165e-04 5.005986728241677008e-01
1.112561101665260344e+00 2.757877535621977572e-01 3.735801656556563449e-05 5.591316592486076376e-01
9.665695147382338259e-01 2.415672669395989847e-01 3.332552530495180688e-07 4.900226928889369615e-01
9.244284757755785176e-01 2.274917709054820603e-01 1.406403765668268831e-04 4.620404202655710724e-01
9.869116095819184808e-01 2.500759275957435412e-01 1.257960510240519131e-04 5.071007214487157633e-01
1.055576457833274473e+00 2.685536625684784018e-01 1.242131648687526272e-04 5.443556048616151610e-01
9.752552916120554860e-01 2.409437523431749162e-01 6.744794120433348543e-04 4.895367328956558017e-01
9.877743715958280379e-01 2.514511543266780835e-01 6.390080822585770843e-06 5.095815199651465566e-01
8.989369407148457558e-01 2.220460304732144452e-01 4.340129848637269260e-04 4.516179767579557858e-01
9.539843614526758442e-01 2.341248147458854512e-01 2.038033930274270778e-04 4.755881738132939907e-01
9.144808212869591779e-01 2.335089829746618273e-01 5.413475266121922950e-04 4.735158552914650598e-01
9.643097167633756239e-01 2.369335420196191921e-01 2.804884334940865084e-04 4.811117019034379383e-01
9.134382047474182142e-01 2.326043250991429168e-01 2.754197527316137618e-05 4.722378861926425087e-01
1.013670744802742663e+00 2.472739268342892260e-01 1.272856085273800484e-05 5.028400445906709981e-01
9.362678900942346116e-01 2.394948033757197392e-01 1.744385613882810460e-03 4.856628296086941687e-01
9.614997029609364532e-01 2.341066801647448681e-01 7.083939326757726380e-04 4.758050118107376991e-01
9.986484303899896275e-01 2.524414158039905431e-01 1.006408476653633749e-03 5.116261786197791039e-01
8.748164171609729145e-01 2.312960334874374080e-01 3.076067258449406560e-06 4.686419184930552539e-01
9.922702136481293955e-01 2.524130871624757355e-01 6.442178561099551597e-04 5.120836503653760641e-01
9.638176791225564477e-01 2.446230329465786946e-01 1.095616412760219119e-04 4.959780465087315071e-01
9.849698102842465719e-01 2.521371963779758252e-01 1.592443858902090103e-04 5.110304060998256404e-01
9.120871102683700826e-01 2.332714739024722983e-01 1.776870067763641189e-05 4.731354831267705618e-01
1.003976787784272018e+00 2.472094995427578101e-01 1.281998614655649261e-05 5.017436011269965634e-01
1.069535326710395973e+00 2.533408025241880024e-01 1.761533109989069849e-04 5.149800165376644534e-01
1.004401064377880237e+00 2.484500197029060886e-01 1.682815050813205146e-04 5.046243388312032785e-01
9.435062201713317886e-01 2.374966935650582867e-01 3.329738981610839976e-04 4.817509791001554076e-01
1.056805545967895110e+00 2.614433522574490243e-01 3.859901401111724023e-04 5.307966628318608882e-01
1.047326334208529053e+00 2.572563624600370247e-01 1.643043989619959720e-04 5.227027486591777627e-01
9.171666472917373580e-01 2.263382412972591018e-01 6.330884524577579910e-06 4.597229694379324494e-01
9.333691463111781772e-01 2.381891575100243408e-01 1.770311909381007995e-04 4.831698027623835268e-01
9.689868874364138129e-01 2.423687729096190013e-01 3.742010792993158701e-04 4.918516165784287408e-01
9.739432797276951215e-01 2.513757572787281847e-01 2.345387149006809813e-04 5.091518849114663459e-01
1.023008470714806162e+00 2.521802246133802994e-01 9.174754615582153067e-06 5.119496796707949660e-01
9.568844597472292435e-01 2.414803793245490771e-01 4.109626506733573707e-05 4.894412290512260566e-01
1.001864754289862880e+00 2.468350477594948578e-01 1.148375283584033564e-05 5.015115905457873113e-01
1.051946962854330092e+00 2.612800889153108486e-01 3.748629118402589558e-04 5.301594700447205266e-01
1.037329347025062409e+00 2.549699175853405442e-01 3.368774107859887957e-04 5.177546443586024116e-01
9.581988291646748035e-01 2.420388786541179671e-01 6.560147976355635397e-05 4.909858273010118124e-01
1.025767035366373259e+00 2.607586062401553439e-01 1.893783901524497711e-05 5.282635758735588771e-01
1.006345284899168524e+00 2.500969004905219117e-01 2.090298909499051412e-04 5.071849368932053181e-01
9.945476457546433835e-01 2.477505367613389298e-01 5.992339267133725780e-06 5.034507295589712994e-01
9.545782598535389463e-01 2.404271232438582873e-01 1.944206915677739168e-06 4.880546813797652095e-01
1.002121781239809772e+00 2.559333574597681404e-01 3.948914926658594134e-04 5.189059592330024229e-01
9.026704881336360398e-01 2.341009176038529316e-01 3.615305492529797301e-04 4.749009460707033781e-01
9.521055763748478284e-01 2.362238789629048930e-01 8.619560233843745272e-05 4.793654013424865634e-01
1.049407985749196026e+00 2.606426555247690624e-01 9.386907861245155540e-05 5.288701291289867878e-01
8.926873596214098816e-01 2.299015956729791033e-01 5.290731847293428332e-05 4.662530895880638848e-01
9.985482472444016100e-01 2.483119188983652359e-01 5.293010137459001867e-06 5.037731112596367522e-01
9.997917469077766128e-01 2.523320923420039330e-01 9.053307471749844071e-04 5.121337434975286040e-01
9.275997940321001334e-01 2.388663946990215448e-01 1.278019557196709497e-05 4.845583778766535121e-01
1.016936009954756193e+00 2.518712164691118693e-01 2.697745423547593248e-04 5.112288198633361258e-01
9.558313493490629975e-01 2.373502168093161724e-01 2.595814524783954098e-05 4.815901621075462380e-01
1.012722062609793694e+00 2.528842988295390559e-01 1.446108765445407977e-06 5.133496751121496837e-01
9.695671413248747594e-01 2.485237761801260548e-01 9.963944918547960970e-06 5.039719710734225089e-01
9.467096192123483078e-01 2.385512761099317092e-01 5.211201260492248887e-05 4.839826414549752154e-01
1.028932726083935822e+00 2.532206020732409302e-01 6.140873861602758521e-05 5.134762988993724075e-01
1.018713763612812073e+00 2.560157136816404444e-01 4.258634583057094216e-04 5.191563524082254411e-01
9.141945217467480900e-01 2.329859521549939583e-01 2.613659749462288401e-04 4.726150128655293714e-01
9.503499496793141876e-01 2.351609825652025976e-01 2.556681956522063696e-04 4.773648027446463216e-01
9.682461706317335715e-01 2.473858777366514661e-01 2.688906785878297789e-03 5.015076823061369593e-01
1.055485680217875810e+00 2.619395374393551079e-01 8.845415192436522658e-08 5.316685497930500048e-01
1.032088676663472260e+00 2.645888670062197523e-01 3.312448090206511053e-04 5.367443770439817019e-01
1.038026616685558956e+00 2.620788287556322094e-01 2.324725192108482584e-04 5.319548057486682691e-01
1.074675284304896783e+00 2.729272119910376992e-01 6.180583554368549132e-05 5.534027542045557579e-01
1.079782379617618249e+00 2.751791504780972675e-01 9.246261099720085030e-04 5.578069819280934150e-01
9.568354660835387548e-01 2.353103896979447940e-01 4.776929509601687986e-05 4.784874467263737774e-01
1.056264643373391099e+00 2.620944858338165040e-01 4.289652099794941977e-04 5.319850542179416220e-01
1.017691485775462423e+00 2.523437128001579377e-01 9.976378485317355469e-04 5.121115671927856106e-01
9.692921964426136627e-01 2.487708236813217788e-01 9.256517479678593458e-06 5.038821645000471916e-01
9.500934433884249408e-01 2.426723415034254816e-01 3.787642335063747933e-04 4.916531976524922132e-01
8.810762336954911511e-01 2.280651427005436216e-01 3.848123901929251722e-05 4.623163004762154693e-01
9.765586835379006514e-01 2.532072140083227452e-01 4.301874761540894166e-04 5.130142340467507278e-01
1.009469314531239448e+00 2.529327662168774915e-01 2.418506253682323204e-04 5.134616566412956162e-01
1.003990794509015849e+00 2.548222421322970388e-01 1.081459683631076391e-04 5.171762641235100322e-01
1.012655214955848093e+00 2.621168159347582738e-01 1.228485155152629885e-05 5.309296205822281456e-01
8.988334301886019562e-01 2.233126317227527025e-01 5.929180322493651832e-04 4.539338861568441019e-01
9.722306396125161010e-01 2.485096959023119778e-01 6.757030597687328046e-06 5.039821503514820833e-01
9.767498723651191206e-01 2.507508264859313885e-01 2.430382312297562351e-05 5.087455728360253948e-01
1.008323818821389439e+00 2.574221663999409215e-01 6.067717523377349521e-04 5.214417830786267638e-01
1.116282639295365753e+00 2.726646818247986936e-01 1.110996093448678035e-07 5.538729965107600517e-01
1.014641202746654480e+00 2.506446443503300703e-01 4.335794074940062205e-04 5.101301303750496174e-01
1.009669047476987824e+00 2.518121274876839455e-01 9.648822799892627527e-07 5.113079131706663727e-01
9.606942711071126961e-01 2.495107316771559003e-01 1.678451314148347805e-05 5.063029823236137039e-01
1.023655973516705231e+00 2.654732299712090349e-01 1.341991505282494615e-07 5.371058069140824953e-01
8.850840722606150290e-01 2.274724330557592600e-01 1.193107517030086476e-05 4.615921920790341249e-01
9.512533072943277768e-01 2.385299678074888907e-01 5.928059866019308899e-06 4.849581604538537039e-01
1.051065529464065840e+00 2.669518712950786354e-01 5.920899017037625355e-05 5.419115744505714760e-01
9.849646279270155569e-01 2.500314084182939101e-01 7.140846378696687896e-04 5.069561804672736427e-01
1.086410550490413573e+00 2.750440177918204165e-01 4.069004311820796486e-04 5.573418961895164614e-01
1.013949515317453365e+00 2.605175061355073929e-01 4.642429393819819488e-06 5.277985054767860840e-01
9.741624007119882300e-01 2.441446085344537997e-01 3.648965322718575278e-04 4.950465643512719782e-01
1.043358708917755395e+00 2.632207100473691885e-01 2.429595940748956976e-04 5.337948833030617957e-01
9.519964713609543328e-01 2.399391016491621842e-01 2.783153327525539563e-06 4.873351552729344172e-01
1.011961467237378898e+00 2.561034209590782318e-01 4.637528768904218752e-04 5.188164563724644296e-01
9.642543716141050991e-01 2.445779539767051758e-01 2.894050157410666446e-05 4.959866385767274233e-01
1.013807181642562893e+00 2.483416513206761211e-01 2.230369065153825522e-05 5.044857344324402693e-01
9.556364980705592815e-01 2.406171477295472594e-01 1.321825980930808826e-05 4.875703404715945877e-01
9.666758069808003562e-01 2.448952544942696041e-01 1.677858124233839586e-04 4.967957429347271137e-01
9.696929686774848900e-01 2.417466710535923768e-01 1.300293010622283848e-05 4.912347721465085693e-01
1.078431670636657458e+00 2.693344961833160633e-01 3.650816822658903868e-04 5.466281196309871193e-01
1.023466644355471633e+00 2.455712394403079535e-01 1.152605376695318398e-04 4.995360100740585119e-01
9.511714412183602807e-01 2.447683285381499485e-01 1.575574316034763296e-04 4.964380188262222937e-01
9.149620126762472161e-01 2.300732764594705937e-01 4.789678829091697761e-04 4.673365666593108925e-01
9.085364985031432195e-01 2.356752273418397658e-01 8.527599714349991722e-05 4.781135327581960692e-01
9.681744694486880132e-01 2.446599415123253962e-01 1.377410776466166293e-05 4.957114718097188621e-01
9.392356982451933733e-01 2.453889835869529079e-01 2.382338012095397612e-04 4.979006768355668799e-01
8.553153507816365630e-01 2.207278694759848003e-01 5.949293267761054244e-04 4.480350595574385530e-01
9.775891484377857710e-01 2.497514831695352988e-01 3.451319632363836535e-04 5.065332427830409046e-01
8.869542276117515778e-01 2.284267143757701679e-01 8.625931318006699192e-05 4.629433034842058148e-01
9.712734099008454303e-01 2.425883964179456342e-01 1.512899015419872848e-04 4.922395262473798772e-01
1.014696850472574408e+00 2.557364125914280417e-01 2.594055973460697309e-04 5.188106658879162447e-01
1.020763666342209719e+00 2.513662051218742977e-01 6.487259259426938910e-05 5.100531026784084210e-01
1.006437586295222841e+00 2.536891322001483817e-01 2.466807561222744891e-05 5.149730767294737888e-01
9.605200176310906279e-01 2.447656862486583540e-01 9.329614677856897691e-06 4.960510072073791576e-01
9.582004096530293280e-01 2.465860871576681379e-01 2.343175970358775233e-04 4.997831406817072053e-01
1.002580297583558933e+00 2.531507205214415523e-01 8.225775551729836571e-04 5.136392184872343725e-01
1.024641039736008619e+00 2.612735925619698030e-01 3.529326030160502082e-04 5.292825669075613693e-01
9.322603638736127740e-01 2.370819011259697462e-01 4.095037073418977949e-06 4.812956139051113857e-01
9.147397490155798616e-01 2.431141821459565089e-01 5.153938308496549756e-04 4.924553286406073704e-01
1.039161934550099087e+00 2.501002712073057133e-01 7.231447953676282318e-05 5.080892450445269048e-01
9.636561971067302279e-01 2.481062748972168996e-01 4.757299203783367882e-04 5.031493276922595070e-01
9.553645789997646798e-01 2.454435757374489879e-01 2.498165274278804041e-05 4.975765021718026038e-01
1.029833067198177687e+00 2.682116728302392783e-01 4.491088258244032466e-07 5.435155119145140823e-01
9.799066152608155722e-01 2.411764512229184199e-01 2.581247685837475395e-05 4.903069802528139953e-01
9.643596315982919664e-01 2.430573062073316803e-01 3.382565108547597480e-05 4.931396461398938613e-01
1.031200467339356885e+00 2.541305488410722235e-01 3.594714858787462957e-05 5.155678285166716002e-01
9.896591502088792902e-01 2.447344489910892040e-01 4.695467852827786299e-04 4.969072597665735724e-01
1.032563204886377539e+00 2.609066121539723726e-01 1.354515458121609147e-05 5.295932180591320648e-01
1.086643741236403171e+00 2.585873538307834063e-01 5.205950734067662329e-04 5.258387545872782454e-01
1.087658513995539478e+00 2.734288586741713822e-01 5.350197908441574899e-04 5.545839849085394402e-01
9.875474531661365685e-01 2.431840079401304533e-01 7.741832457177490287e-06 4.935274057985919449e-01
1.008532757066605168e+00 2.544987697980664043e-01 4.057568591050295841e-04 5.156161210411465134e-01
1.005316450389937888e+00 2.479773307934948767e-01 4.015948481468175528e-04 5.041369556898769311e-01
9.720164507697426348e-01 2.490026520699508417e-01 1.574938814757470378e-03 5.043745730976064712e-01
9.693837203552559956e-01 2.403692495430424791e-01 1.195665004355160592e-07 4.881825347031495399e-01
1.055693650668716677e+00 2.535433975051810118e-01 6.240577136100596261e-05 5.156086150936842749e-01
9.766808369520022515e-01 2.581462472475904435e-01 1.106885771621745392e-03 5.226583287920070209e-01
9.956015629286190105e-01 2.518281317935269215e-01 1.057967987156133497e-07 5.109737085163159609e-01
9.539471530749173978e-01 2.424186122015318801e-01 1.398189287151325164e-04 4.917169759108860339e-01
1.029726904795729148e+00 2.631082326063320376e-01 2.850822923630561947e-06 5.342305942887266568e-01
1.101010167750453128e+00 2.677462820083529316e-01 1.241883106739889329e-04 5.438113015727025212e-01
9.751760327221451474e-01 2.602375205755424470e-01 6.847227221037897080e-05 5.273288569759366773e-01
9.870470527321769660e-01 2.484465869415402317e-01 1.353700269823166223e-05 5.040059612884513207e-01
1.036032149019476600e+00 2.589977411940380669e-01 2.235471719609855913e-04 5.249970170535221969e-01
9.708322711355766854e-01 2.457451033178531807e-01 5.536590721306876729e-04 4.986506511959225008e-01
1.077975990053831046e+00 2.724155341283578946e-01 1.084049071001045580e-04 5.524650381103393126e-01
9.505307926576122002e-01 2.446901208207244161e-01 1.560638436739166305e-04 4.960060687330898332e-01
9.878897456471286143e-01 2.444949795531022319e-01 5.142696645149589743e-06 4.965946208468376977e-01
9.500099433325911447e-01 2.384636658002591003e-01 2.283786779775157636e-04 4.840529403487058291e-01
9.383276157475095580e-01 2.415383573805127415e-01 1.853994506461207038e-06 4.894771283126577166e-01
9.851510891612929033e-01 2.415499090639078306e-01 1.710222780906300085e-04 4.904752445562038932e-01
1.038855682266018654e+00 2.621629096236967049e-01 3.631082732438597780e-06 5.325345429038503831e-01
8.796186092895391662e-01 2.326933829839868406e-01 4.358618810242701196e-05 4.717660881471610890e-01
1.006131537383757601e+00 2.546482041427359233e-01 2.271423085620582843e-05 5.166031568303004473e-01
9.792915471227813251e-01 2.575065830106976761e-01 5.899688799002044559e-05 5.211507672861206419e-01
9.917750824742130877e-01 2.432556658325124299e-01 2.203485221059524508e-04 4.938376208844563742e-01
8.659488791080238723e-01 2.232635586278978457e-01 3.859327895621991679e-04 4.530175055113215832e-01
9.660909659817711326e-01 2.481087131024338199e-01 1.709364317666569340e-06 5.030173777617371611e-01
9.435639308377877787e-01 2.381201775150952604e-01 9.321217275818846626e-05 4.834533724546624667e-01
9.954755816291394055e-01 2.538602201384108081e-01 8.217976207508051749e-05 5.141635709881211547e-01
