4.358874823830065637e+00 1.950657126745251491e+00 4.850308455568418942e-01 6.720971180359063055e+02 4.359069889542745990e+00
5.019722777076296438e-01 2.762499131072684300e+00 2.454600582463871916e+00 5.640137249826231880e+01 5.022485276207362404e-01
5.111924451445438722e-01 1.863861048263488973e+00 1.511694719001863030e+00 1.947805130344351312e+02 5.113788312493728894e-01
5.091327122938873462e-01 2.204826557927306752e+00 1.863762162993123583e+00 9.937238482978223431e+01 5.093531949496848954e-01
5.033511791154242632e-01 2.424081348006396741e+00 2.001857198823178585e+00 5.654787278966730355e+02 5.035935872502237398e-01
4.906867644987307209e-01 2.100782826489337118e+00 1.696857695012494949e+00 3.951268711911629907e+02 4.908968427813795721e-01
4.894390620224969846e-01 4.668242714013253747e-01 1.138362989725461294e-01 2.621026305316864295e+02 4.894857444496409915e-01
4.926159615351961563e-01 5.999383093500669784e-01 3.120460631534197060e-01 3.627807103854645732e+01 4.926759553661281821e-01
4.787869825128275303e-01 5.148527516503298429e-01 2.118518903393271924e-01 9.748993862164061852e+01 4.788384677879925500e-01
4.845490693569691754e-01 9.062045552738001719e-01 5.332133687366265029e-01 1.915135403266201024e+02 4.846396898125004404e-01
5.083731803387301351e-01 5.069272092829698595e-01 1.234167262898237249e-01 3.467451863747588163e+02 5.084238730596581934e-01
4.870960839259711461e-01 4.573803349312448030e-01 3.643695221648544924e-02 2.030178140362403667e+02 4.871418219594677579e-01
4.981431661690554069e-01 3.529638731604569646e-01 1.174865786942973223e-02 1.144992217748592083e+02 4.981784625563721036e-01
5.086785338423777114e-01 4.036542903978175834e-01 8.556028335658430115e-03 4.087947736649117587e+02 5.087188992714191116e-01
5.087111359583631476e-01 4.978059522060050424e-01 1.862282201487653333e-01 1.565854536592589739e+02 5.087609165535815769e-01
4.897957171027859102e-01 1.245006625616303264e+00 9.374302587285827659e-01 1.014231207441242191e+02 4.899202177653471657e-01
5.014660462749078729e-01 5.643306675355403979e-01 9.243169916864274471e-02 6.794449357537226888e+02 5.015224793416601656e-01
5.040574105487530820e-01 6.065053962161212064e-01 2.606444319584803604e-01 2.540256749039485271e+02 5.041180610883793101e-01
4.973578990632247510e-01 1.751637217929022050e+00 1.458762510993235395e+00 5.095230311389303779e+01 4.975330627850187981e-01
4.768607854591396245e-01 6.165265498810512668e-01 3.080004641165535184e-01 4.424471459602371226e+01 4.769224381141232150e-01
4.948272517086492739e-01 9.355248208921597142e-01 6.171808139983362418e-01 1.747692303609813393e+02 4.949208041907343092e-01
5.044143351847181211e-01 4.609018734123043748e-01 9.651617672119432167e-02 1.553114687040124977e+02 5.044604253720615938e-01
4.922516514421127476e-01 4.048683390785306813e+00 3.662650286968777369e+00 3.596241820001467886e+02 4.926565197811922925e-01
4.985425342177453589e-01 1.663914169254900877e+00 1.303854685707852568e+00 1.335634265066998694e+02 4.987089256346707855e-01
5.038242616970347587e-01 9.414286190725884573e-01 5.407387769625981999e-01 3.132082427176184183e+02 5.039184045589433225e-01
5.181385372492264274e-01 5.361384234951755978e-01 1.886093922915312859e-01 2.494724951389142120e+02 5.181921510915732387e-01
4.924156341274465443e-01 5.808904390075759760e-01 2.755143917343059745e-01 1.676703519107712737e+02 4.924737231713493535e-01
4.889962719603099250e-01 3.883446703600839656e-01 3.089097969575938657e-02 3.060746291766780587e+02 4.890351064273450454e-01
5.117310767048410813e-01 1.964749434124508864e+00 1.633593775917358881e+00 5.566478251520995002e+01 5.119275516482564292e-01
5.008046939915009599e-01 2.557451312342613026e+00 2.240595768036218516e+00 1.467613463145193577e+02 5.010604391227373444e-01
4.935219582086568524e-01 3.772379034327524860e-01 7.956490315499888024e-04 3.544059638422465923e+02 4.935596819989994111e-01
5.032378808876915022e-01 4.751703461722103783e-01 1.213005536807326146e-01 2.584477764345103310e+02 5.032853979223105290e-01
5.145968365067210559e-01 3.629625275986028132e-01 2.940330465000941945e-02 1.617634823845289702e+02 5.146331327594791949e-01
4.972100202772555821e-01 2.971553273534329742e-01 2.232080561957599726e-02 4.594151239741241710e+01 4.972397358099949760e-01
4.983519025827076732e-01 4.312750899291073470e-01 6.669042623483855715e-03 4.663915805656224052e+02 4.983950300916985543e-01
4.821782744047983793e-01 3.344765107954484229e+00 2.991599286736580154e+00 1.242358280626025788e+02 4.825127509155939243e-01
4.896754263516554517e-01 5.220014644545454274e-01 1.613441409068958887e-01 3.461511902283737072e+02 4.897276264981006433e-01
5.097863275777704262e-01 1.828512369013387096e+00 1.469097012795109070e+00 1.628301061633198970e+02 5.099691788146691884e-01
4.982034365753702509e-01 2.577884798052377135e+00 2.200922573002102922e+00 3.056582718227764985e+02 4.984612250551725410e-01
4.901363095961722149e-01 1.374668609417053267e+00 9.991263963323557817e-01 3.241836028625232871e+02 4.902737764571141743e-01
4.957467487932035177e-01 5.524164570205868152e+00 5.141283717875352544e+00 2.484220144561170400e+02 4.962991652502236617e-01
5.071864465005572198e-01 1.107754171529748977e+00 7.408201987809590605e-01 3.161438248484214455e+02 5.072972219177123154e-01
4.854346685404922757e-01 9.874477896983000491e-01 6.161373814193454868e-01 9.712211381818951850e+01 4.855334133194628699e-01
4.996095163870903355e-01 5.601973797679666855e-01 2.123397102118999291e-01 2.016603662241649033e+02 4.996655361250701421e-01
4.889182391761525692e-01 3.616323071852287629e+00 3.261614590090744947e+00 3.310943717588178856e+02 4.892798714833322959e-01
4.982791507538764653e-01 2.206577458096948163e+00 1.863547888682050013e+00 2.408103750597098838e+02 4.984998084996879464e-01
4.949956274849969806e-01 2.011036511445037700e+00 1.616769446737224891e+00 3.185271128122643063e+02 4.951967311361434865e-01
4.841719331010476135e-01 2.844315147803241350e-01 8.615891686915849376e-03 3.373014949794153239e+01 4.842003762525258770e-01
4.879224608117060380e-01 5.173484059843055149e+00 4.844436852349732092e+00 1.622856590154850096e+02 4.884398092176918671e-01
4.966661341037825195e-01 4.747995086018237942e-01 1.499503860797151422e-01 5.324241678978280845e+01 4.967136140546400402e-01
