[I] Created an 2-dimensional lattice of size 32. 
[I] Initial setup has average of 0.05884151690883019, with a standard deviation of 2.0220530454500656. 
[I] Initial lattice is: 
 -0.90  
0.58   
-0.93  
1.35   
0.03   
6.76   
-0.41  
-5.43  
0.36   
1.73   
-0.74  
4.70   
-0.40  
-0.83  
2.81   
0.86   
-3.15  
1.36   
0.40   
0.02   
0.88   
-0.60  
-0.68  
-0.68  
-0.45  
-1.86  
0.42   
-1.59  
3.70   
-0.32  
2.25   
1.37   
# New slice
2.20   
0.44   
1.85   
4.01   
-1.71  
0.11   
-0.94  
2.26   
-0.07  
1.74   
-0.37  
-0.58  
-0.92  
-1.26  
2.42   
0.23   
-2.51  
-0.31  
-0.87  
0.77   
0.02   
-1.36  
3.79   
-0.01  
1.67   
-3.06  
-4.67  
2.87   
-1.72  
-2.70  
0.86   
0.96   
# New slice
-4.07  
0.07   
-1.94  
-0.39  
2.01   
-0.71  
-1.04  
0.10   
-0.73  
-0.48  
1.59   
0.54   
-0.39  
-0.04  
-2.05  
2.04   
0.14   
-3.59  
-2.36  
-0.51  
-3.15  
-2.15  
1.22   
-0.70  
2.62   
-0.49  
-1.68  
-3.15  
-1.21  
0.03   
-0.10  
-2.77  
# New slice
-0.72  
2.65   
-1.28  
-2.77  
2.31   
1.43   
3.12   
1.10   
1.56   
-0.37  
3.02   
-1.86  
2.69   
-1.73  
-1.75  
1.03   
3.16   
-3.13  
-2.40  
1.54   
2.52   
-2.82  
4.31   
0.74   
0.77   
0.76   
2.25   
-5.40  
0.46   
-2.77  
-1.53  
-1.95  
# New slice
0.34   
-0.40  
2.29   
3.98   
-1.79  
-1.15  
1.21   
2.20   
4.62   
-2.12  
-0.45  
0.64   
-3.55  
0.04   
-2.77  
-3.42  
0.71   
0.10   
-3.59  
1.67   
-3.21  
-2.17  
1.05   
2.08   
1.28   
-1.70  
1.94   
-3.65  
-1.90  
1.54   
-5.11  
-1.25  
# New slice
2.79   
-0.53  
-1.79  
0.68   
-0.92  
2.54   
-1.07  
1.70   
0.27   
0.44   
-0.68  
-2.26  
0.34   
3.36   
0.51   
-1.84  
2.05   
-0.62  
1.48   
1.86   
1.95   
-0.25  
0.64   
0.55   
0.39   
-1.20  
2.49   
0.67   
4.51   
-2.28  
1.70   
-1.03  
# New slice
-1.62  
-1.28  
1.92   
-1.76  
0.72   
1.45   
0.29   
-0.48  
-0.84  
-2.54  
-2.23  
0.30   
1.07   
-0.52  
2.94   
-1.70  
1.43   
-3.69  
-0.15  
2.80   
-2.06  
0.48   
0.39   
0.01   
1.23   
1.42   
0.91   
-1.42  
-0.53  
-0.68  
-0.36  
-1.18  
# New slice
0.22   
2.14   
2.14   
1.87   
-0.13  
0.20   
-0.07  
-3.81  
-2.15  
2.38   
3.12   
1.86   
-0.53  
-0.77  
0.51   
-1.66  
2.30   
-1.32  
3.92   
3.50   
1.08   
2.30   
0.84   
-2.36  
1.14   
-1.03  
-1.80  
-0.08  
-2.48  
1.45   
-0.08  
-1.80  
# New slice
0.68   
0.21   
-2.51  
-0.72  
5.02   
1.52   
0.23   
-0.14  
-3.34  
-2.19  
-1.66  
1.29   
2.52   
-1.49  
-1.49  
-0.21  
-1.91  
1.34   
-0.82  
-1.11  
2.84   
0.76   
-0.94  
0.43   
-2.10  
-1.41  
1.34   
1.64   
1.08   
6.91   
-4.72  
0.00   
# New slice
-1.02  
2.65   
0.60   
-0.28  
3.25   
0.52   
-0.87  
3.35   
-0.05  
-0.70  
-0.58  
0.44   
-1.76  
0.45   
0.82   
0.05   
0.68   
-2.32  
0.55   
0.26   
-0.48  
-0.42  
-0.63  
0.91   
2.82   
-3.71  
-1.56  
0.13   
0.46   
-2.08  
-2.84  
1.61   
# New slice
-0.46  
-1.13  
-0.91  
-3.33  
1.55   
0.36   
-0.65  
1.43   
1.84   
-0.46  
-0.44  
0.30   
0.30   
-2.67  
0.12   
-0.51  
0.25   
1.04   
1.06   
1.22   
0.09   
0.00   
-3.30  
-0.63  
1.94   
-0.79  
-3.62  
0.16   
4.79   
0.19   
-0.94  
3.52   
# New slice
-2.29  
-0.28  
1.30   
-0.68  
4.29   
-2.85  
0.59   
0.55   
2.44   
3.07   
0.33   
-1.56  
3.78   
1.25   
-0.91  
-2.52  
-1.51  
0.98   
0.97   
-2.18  
5.01   
-0.28  
0.82   
-1.40  
3.79   
2.83   
1.26   
2.32   
2.81   
-1.22  
3.10   
1.44   
# New slice
5.18   
-2.64  
-1.30  
0.61   
-0.76  
1.41   
0.31   
-0.92  
2.79   
4.19   
-3.90  
0.47   
-0.24  
1.91   
0.18   
0.91   
0.34   
1.96   
-0.21  
1.57   
-2.52  
-2.90  
-2.22  
-1.13  
0.12   
-3.30  
-1.58  
-0.67  
-0.08  
2.00   
2.10   
-0.73  
# New slice
2.17   
-0.07  
-0.53  
-0.37  
-0.23  
0.08   
-1.84  
-1.51  
0.78   
-1.32  
-0.66  
-1.47  
-0.83  
1.22   
1.30   
2.84   
-0.65  
-0.40  
-0.93  
-0.56  
-5.17  
2.92   
-1.86  
-0.14  
-0.07  
-2.35  
2.07   
-1.76  
0.86   
-0.05  
0.70   
1.92   
# New slice
3.22   
0.33   
1.63   
-0.36  
-0.85  
-3.05  
1.34   
-1.86  
-2.44  
-1.24  
2.03   
1.38   
-3.27  
-1.77  
-1.91  
0.92   
1.64   
2.52   
-2.24  
1.01   
-3.22  
0.31   
-0.30  
2.13   
-2.58  
0.39   
2.65   
1.66   
2.14   
-1.90  
3.07   
1.29   
# New slice
-1.06  
0.37   
-0.29  
1.69   
-3.18  
-2.36  
2.34   
2.24   
2.57   
2.53   
1.50   
-2.81  
2.61   
6.21   
-0.90  
1.09   
2.86   
-1.91  
1.52   
-1.75  
0.98   
1.04   
3.21   
0.35   
-1.36  
2.11   
-0.53  
-1.86  
3.93   
0.95   
-0.55  
1.73   
# New slice
1.59   
-1.07  
0.97   
1.18   
2.11   
-0.24  
-3.27  
-0.40  
-0.72  
2.58   
1.96   
-0.08  
0.48   
3.79   
-2.25  
-0.24  
-0.44  
0.04   
0.19   
-1.40  
-0.41  
3.63   
-3.19  
4.93   
-1.90  
-0.33  
-0.55  
-3.44  
-2.11  
0.87   
-0.66  
0.51   
# New slice
1.33   
-0.06  
1.37   
-0.79  
3.97   
2.58   
0.09   
-0.06  
-0.51  
0.02   
0.65   
-1.01  
2.01   
1.17   
0.51   
3.72   
1.50   
-3.58  
0.51   
-1.30  
0.13   
2.55   
-2.55  
-1.09  
-2.27  
0.12   
0.70   
2.41   
2.87   
-0.82  
-4.29  
-1.82  
# New slice
-1.20  
0.42   
-0.61  
-1.31  
-1.07  
-0.91  
1.36   
-2.34  
-1.46  
1.49   
-0.44  
-0.84  
-1.22  
-0.52  
2.39   
4.57   
0.35   
0.98   
-1.97  
-1.74  
-1.12  
-0.81  
-1.76  
-1.58  
-1.83  
-1.04  
0.50   
-0.22  
2.01   
-2.67  
0.43   
1.59   
# New slice
1.45   
2.56   
0.82   
0.04   
-0.29  
-1.27  
0.83   
1.62   
-3.03  
0.89   
1.04   
-1.15  
-0.17  
-1.51  
-0.57  
1.36   
-0.92  
3.10   
-2.81  
0.70   
-2.90  
5.63   
-1.59  
3.65   
0.01   
1.24   
1.20   
1.72   
-1.87  
-0.68  
-4.09  
-2.15  
# New slice
-4.06  
0.06   
1.21   
2.72   
-1.76  
-0.27  
-1.64  
-2.29  
1.85   
-0.51  
1.80   
-1.25  
-1.21  
-3.06  
0.18   
-0.55  
0.93   
-0.15  
0.66   
-0.81  
0.90   
2.11   
0.21   
-2.24  
0.37   
0.71   
-1.96  
-3.08  
0.51   
-0.30  
-0.55  
2.54   
# New slice
-1.20  
-0.73  
-2.98  
2.89   
-0.93  
-0.75  
-0.70  
-0.01  
-2.00  
-1.34  
-2.33  
-1.36  
-1.16  
1.92   
1.54   
1.79   
0.53   
2.02   
0.29   
-1.43  
6.23   
2.66   
0.28   
3.18   
-3.15  
3.36   
-0.59  
-3.57  
-0.42  
-6.16  
-0.54  
-2.31  
# New slice
-0.41  
1.84   
3.03   
-3.10  
1.81   
-1.68  
-4.99  
3.31   
-0.76  
2.78   
2.03   
1.73   
1.13   
-0.47  
-3.13  
-1.74  
0.57   
-0.71  
3.67   
3.13   
1.02   
-2.22  
-0.09  
-1.62  
1.63   
-2.34  
1.45   
-2.98  
-1.52  
3.65   
-2.83  
2.74   
# New slice
-2.40  
-2.80  
5.30   
2.50   
-2.94  
-2.26  
-4.65  
1.11   
-3.05  
-1.54  
3.87   
-1.78  
-0.36  
0.52   
1.13   
-2.31  
-0.65  
-0.52  
-2.81  
-1.21  
2.21   
0.91   
0.80   
1.02   
1.28   
1.19   
1.15   
-2.51  
1.58   
-2.32  
-2.58  
-0.14  
# New slice
-1.26  
1.48   
1.82   
1.44   
-1.46  
-1.28  
0.52   
-0.88  
2.17   
2.99   
-2.61  
-2.16  
-1.28  
-1.82  
1.77   
0.97   
-1.35  
0.77   
-0.50  
1.24   
3.82   
1.27   
0.57   
-1.01  
-2.30  
-1.28  
0.00   
0.63   
3.35   
4.29   
-0.21  
-2.09  
# New slice
-1.32  
2.61   
-0.36  
-0.06  
-2.92  
2.43   
2.88   
2.22   
0.23   
-2.83  
-3.46  
3.00   
-0.76  
-2.59  
1.87   
-2.37  
-0.30  
-2.12  
5.30   
2.61   
-0.50  
-3.75  
-0.95  
1.53   
1.91   
0.47   
-2.79  
-0.23  
0.98   
-0.53  
-0.03  
1.28   
# New slice
-0.48  
1.11   
-1.63  
1.93   
2.02   
2.48   
-1.78  
2.71   
0.25   
1.56   
0.31   
2.69   
2.71   
0.16   
-0.52  
-1.78  
-1.03  
2.59   
0.75   
-1.54  
-2.55  
-4.49  
-0.54  
-2.41  
1.56   
-3.22  
3.15   
2.37   
-0.87  
-1.42  
-0.69  
0.89   
# New slice
-0.66  
1.85   
-1.07  
-0.64  
-0.75  
0.48   
0.87   
3.53   
3.35   
-0.56  
-0.61  
4.92   
0.82   
0.20   
1.55   
3.98   
3.54   
3.19   
1.97   
1.96   
-1.57  
2.71   
-2.59  
2.36   
-0.95  
-0.60  
-4.30  
1.92   
-1.72  
0.63   
3.10   
1.86   
# New slice
2.42   
-0.67  
-0.10  
3.68   
0.18   
-4.12  
2.11   
-2.62  
1.17   
2.89   
-1.42  
1.09   
-1.25  
-0.52  
-2.78  
0.21   
-0.55  
-3.10  
1.35   
1.20   
1.75   
1.21   
0.15   
-0.89  
-2.06  
1.69   
2.30   
-2.83  
1.34   
0.09   
0.39   
-1.80  
# New slice
-1.48  
-1.57  
-1.66  
0.88   
-1.81  
-2.19  
-3.44  
0.55   
1.45   
0.95   
0.38   
0.02   
1.17   
-0.25  
2.55   
2.48   
2.59   
0.26   
1.02   
0.81   
-2.53  
-2.89  
-3.53  
-0.75  
-0.33  
0.14   
-1.20  
0.28   
1.81   
-3.77  
0.24   
0.86   
# New slice
0.84   
0.23   
-5.33  
0.13   
-2.64  
1.28   
-3.60  
-3.12  
0.30   
-3.06  
0.83   
3.77   
2.69   
0.12   
-0.15  
0.37   
0.38   
0.20   
-2.51  
-5.35  
0.08   
-2.96  
0.45   
-1.36  
4.01   
-0.62  
4.38   
1.05   
0.56   
1.12   
-0.86  
0.74   
# New slice
-0.13  
0.28   
1.24   
-0.61  
1.80   
1.01   
-0.33  
0.09   
3.20   
0.28   
1.61   
1.69   
-0.05  
-0.30  
3.37   
-2.24  
-1.86  
0.48   
1.27   
0.78   
-1.29  
-1.39  
-1.16  
-1.87  
2.01   
0.72   
-1.66  
2.46   
-5.42  
2.58   
-0.70  
-2.91  
# New slice



