2.311937930431938071e+00 7.398008838442684532e-01 6.950869305475290390e-04 9.888519477007086778e+00 3.051738814276209411e+00
3.956639627874852794e-01 1.295493559170909914e-01 4.778714111313884204e-05 2.894920779962392388e+00 5.252133187045747720e-01
3.737990128304172766e-01 1.280801602187917609e-01 4.959286689099911341e-06 1.826469418090737928e+00 5.018791730492080383e-01
3.972048709138106259e-01 1.396742536303020032e-01 8.637669653333290842e-04 2.415709047637613516e+00 5.368791245441146831e-01
3.685606312006938778e-01 1.223105921553721970e-01 2.074622030800805841e-04 1.803588222338172953e+00 4.908712233560651450e-01
3.307406439627987860e-01 1.159901019174313097e-01 8.189950453046086851e-04 3.125847839527869265e+00 4.467307458802298181e-01
3.806548388887338596e-01 1.286529937493904874e-01 1.557158932313928656e-05 2.581221537223465479e+00 5.093078326381251797e-01
3.741042684750288672e-01 1.237368614785335358e-01 2.398117356792735613e-04 1.185011508732887409e+00 4.978411299535642209e-01
3.591580143856004659e-01 1.252236304330785477e-01 2.300043783121051013e-04 3.207834957954856847e+00 4.843816448186792911e-01
3.615875929347168727e-01 1.205429260995427992e-01 2.910862026860424335e-05 5.604697014225006324e-01 4.821305190342579094e-01
4.242355501740269208e-01 1.455395377080535846e-01 1.565399640333764181e-03 2.099664581100783689e+00 5.697750878820802001e-01
3.887427220472123857e-01 1.261860064158258077e-01 4.254624496076724054e-06 2.134346815804439412e+00 5.149287284630396089e-01
3.855464932463809058e-01 1.254542743236197189e-01 8.492390355700633929e-04 7.671772866017257941e-01 5.110007675700000140e-01
3.831837469495852910e-01 1.265672089257605937e-01 3.510235072779405228e-04 1.097971606726427130e+00 5.097509558753452463e-01
3.665030052047842934e-01 1.267390991866670646e-01 1.829855575897598838e-04 2.243340326834225351e+00 4.932421043914498870e-01
3.483462530969431703e-01 1.240312711213597680e-01 1.036724240292969485e-03 2.871047431095755442e+00 4.723775242183015366e-01
3.835988770772667533e-01 1.251800143538332744e-01 1.368660726220676651e-05 2.493402559495930815e-01 5.087788914310988897e-01
3.690717508588086115e-01 1.246978769011963667e-01 4.758262267935969717e-04 1.201997142388178785e+00 4.937696277600046590e-01
3.409606883040336434e-01 1.137410354136463853e-01 6.062646698319884000e-05 3.635282728428324894e+00 4.547017237176805837e-01
3.641945590871414340e-01 1.159974659083884835e-01 9.832531644568651654e-06 4.932731670527926715e-01 4.801920249955298203e-01
3.622090526433929814e-01 1.318439638846774231e-01 2.553570395146594497e-05 3.813980348841606194e+00 4.940530165280707098e-01
3.587428059496727273e-01 1.180219302032219503e-01 2.364361582595147029e-04 8.436952418392633657e-01 4.767647361528932759e-01
3.816656536506347619e-01 1.329200085529528286e-01 1.279811397143659378e-03 1.134133341322963506e+00 5.145856622035891448e-01
3.943644021258700949e-01 1.358379748385009078e-01 3.020310778803874264e-03 1.568859567426118318e+00 5.302023769643702256e-01
3.787400756432136029e-01 1.315539853229117373e-01 1.460251059540663065e-03 4.570679366213081352e+00 5.102940609661258398e-01
3.809875116452278165e-01 1.250047912567520958e-01 7.688763343255183760e-04 4.123115244051894224e-01 5.059923029019777196e-01
3.759837192645307247e-01 1.210900697186861885e-01 3.671994577682099136e-04 1.061846359690840957e+00 4.970737889832166911e-01
3.811510789978619362e-01 1.261894747185230148e-01 3.889656827859412745e-06 3.669105692698955146e+00 5.073405537163858670e-01
3.740112278815408420e-01 1.322828928309620899e-01 6.445849499453028227e-06 5.037115169973040096e+00 5.062941207125026821e-01
3.596581481091672972e-01 1.308731696968097047e-01 5.712526514732418469e-04 4.131956782738150480e+00 4.905313178059754753e-01
3.763343419821308933e-01 1.283254314003375585e-01 5.568048203135551886e-06 2.673155368120072595e+00 5.046597733824691456e-01
3.464687307179595832e-01 1.190070845000448380e-01 1.593294096202966257e-03 6.257718878358030645e-01 4.654758152180044628e-01
3.891540020154889978e-01 1.365818238111097815e-01 3.007361466214694706e-05 4.494219744515284276e-01 5.257358258265980577e-01
3.760142270048535962e-01 1.230611591145351069e-01 5.770652938978889545e-05 6.051862738716096146e-01 4.990753861193865104e-01
3.777387842546271468e-01 1.243555229503845311e-01 1.579149854519561806e-06 1.942768596168635842e+00 5.020943072050104705e-01
3.968599224032752781e-01 1.471814281206986763e-01 9.206606426830318585e-05 1.639805660487608119e+00 5.440413505239743985e-01
3.831207379768801213e-01 1.334903495378218508e-01 1.831586326071838432e-03 2.011739936174703924e+00 5.166110875147016390e-01
3.571274934926661482e-01 1.255952062406305303e-01 3.367193337485988795e-04 1.797201043498194650e+00 4.827226997332964564e-01
3.688910496650303905e-01 1.263820358165419766e-01 1.296090117809409539e-04 2.196701562897149351e+00 4.952730854815737271e-01
3.884799531608804646e-01 1.298930515223423732e-01 5.251429622832380243e-07 1.209781143442004270e+00 5.183730046832234484e-01
3.759421800402302782e-01 1.303077673260945868e-01 5.839221081170501272e-05 9.908314629135261953e-01 5.062499473663248928e-01
3.515961219498380252e-01 1.233358197953415419e-01 2.334486204817874829e-04 2.373564854392587797e+00 4.749319417451815517e-01
3.945902216734898382e-01 1.298335457323706033e-01 2.466021242316409874e-04 1.261046676751441886e+00 5.244237674058611631e-01
3.542592732920695764e-01 1.295022999726288815e-01 1.618800531490481188e-05 2.501546350100935179e+00 4.837615732646985967e-01
3.657232012227158435e-01 1.172271279936149685e-01 1.723701149309026699e-05 1.503931451728727886e+00 4.829503292163292993e-01
3.708653676264025978e-01 1.239313182277064357e-01 2.817230238648608790e-04 1.797334862703297231e+00 4.947966858541104629e-01
3.656792704499668423e-01 1.228869642104145760e-01 1.798894046675135808e-04 1.838705062813165592e+00 4.885662346603814599e-01
3.656864271773166974e-01 1.284086150000380844e-01 2.583453858972873177e-03 1.562944132941015418e+00 4.940950421773562806e-01
3.518928939592733118e-01 1.197100086018157705e-01 1.259243897797403215e-06 3.942778334270490959e+00 4.716029025610891101e-01
3.678784046379244832e-01 1.253145201349908366e-01 1.222747466945921593e-04 1.096361690723633986e+00 4.931929247729172072e-01
